<?xml version="1.0" encoding="UTF-8" standalone="no"?>
<svg
   xmlns:dc="http://purl.org/dc/elements/1.1/"
   xmlns:cc="http://creativecommons.org/ns#"
   xmlns:rdf="http://www.w3.org/1999/02/22-rdf-syntax-ns#"
   xmlns:svg="http://www.w3.org/2000/svg"
   xmlns="http://www.w3.org/2000/svg"
   version="1.1"
   id="svg6966"
   viewBox="0 0 951.49643 399.98044"
   height="112.88337mm"
   width="268.53345mm">
  <defs
     id="defs6968" />
  <metadata
     id="metadata6971">
    <rdf:RDF>
      <cc:Work
         rdf:about="">
        <dc:format>image/svg+xml</dc:format>
        <dc:type
           rdf:resource="http://purl.org/dc/dcmitype/StillImage" />
        <dc:title></dc:title>
      </cc:Work>
    </rdf:RDF>
  </metadata>
  <g
     transform="translate(-937.83788,-1065.7304)"
     id="layer1">
    <g
       transform="matrix(0.17376771,0,0,-0.1737677,1659.3383,957.60184)"
       id="g5775-8"
       style="fill:#ffffff;fill-opacity:1">
      <g
         id="g5217-1"
         style="fill:#ffffff;fill-opacity:1">
        <path
           id="path4701-1"
           d="m -2892.4972,-2093.9905 333.84,798.08 64.08,0 333.84,-798.08 -84.32,0 -103.44,249.52 -358.56,0 -102.32,-249.52 -83.12,0 z m 366.48,705.92 -164.08,-394.56 323.76,0 -159.68,394.56 z"
           style="fill:#ffffff;fill-opacity:1" />
        <path
           id="path4703-3"
           d="m -2074.5772,-2093.9905 0,798.08 330.48,0 c 137.12,0 236.08,-127.04 236.08,-250.64 0,-130.4 -92.16,-252.88 -229.28,-252.88 l -259.68,0 0,-294.48 -77.6,0 z m 77.6,364.24 255.12,0 c 94.4,0 155.12,86.56 155.12,183.2 0,100.08 -74.16,180.96 -161.84,180.96 l -248.4,0 0,-364.16 z"
           style="fill:#ffffff;fill-opacity:1" />
        <path
           id="path4705-9"
           d="m -1551.6972,-2093.9905 333.84,798.08 64.08,0 333.84,-798.08 -84.32,0 -103.44,249.52 -358.56,0 -102.32,-249.52 -83.12,0 z m 366.48,705.92 -164.08,-394.56 323.76,0 -159.68,394.56 z"
           style="fill:#ffffff;fill-opacity:1" />
        <path
           id="path4707-2"
           d="m -442.2572,-1291.3505 c 141.6,0 245.04,-71.92 294.48,-174.24 l -62.96,-38.24 c -50.56,105.68 -149.52,141.6 -236.08,141.6 -191.12,0 -295.6,-170.88 -295.6,-331.6 0,-176.48 129.28,-336.08 298.96,-336.08 89.92,0 195.6,44.96 246.16,148.4 l 65.2,-33.68 c -51.68,-119.12 -193.36,-185.44 -315.84,-185.44 -219.2,0 -373.2,209.04 -373.2,411.36 0.08,192.16 138.32,397.92 378.88,397.92 z"
           style="fill:#ffffff;fill-opacity:1" />
        <path
           id="path4709-1"
           d="m 607.1828,-1295.9105 0,-798.08 -78.72,0 0,373.2 -473.2,0 0,-373.2 -77.52,0 0,798.08 77.52,0 0,-355.2 473.2,0 0,355.2 78.72,0 z"
           style="fill:#ffffff;fill-opacity:1" />
        <path
           id="path4711-2"
           d="m 1323.5828,-2024.2305 0,-69.68 -536.16,0 0,798 526.08,0 0,-69.68 -448.48,0 0,-287.76 391.2,0 0,-66.32 -391.2,0 0,-304.64 458.56,0 z"
           style="fill:#ffffff;fill-opacity:1" />
      </g>
      <g
         id="g5085-8"
         style="fill:#ffffff;fill-opacity:1">
        <path
           id="path4756-5"
           d="m -3168.0172,-623.03047 c -36.24,-21.44 -96.48,-82 -168.4,-169.84 l 66.08,-124.72 c 46.4,66.32 93.52,126 141.04,176.96 3.68,4.08 5.6,6 5.6,6 -1.84,-2 -3.68,-4 -5.6,-6 -15.36,-16.96 -62,-71.36 -132.4,-179.52 67.76,3.36 171.92,17.28 256.88,31.76 25.28,141.6 -24.8,206.4 -24.8,206.4 0,0 -63.76,103.04 -138.4,58.96 z"
           style="fill:#ffffff;fill-opacity:1" />
        <path
           id="path4783-5"
           d="m -3465.2172,-1239.8305 c 20.08,37.52 40.4,74.24 60.96,109.92 21.36,37.12 42.96,73.04 64.72,107.76 1.28,2.08 2.56,4.16 3.84,6.16 21.6,34.16003 43.36,66.96003 65.28,98.32003 l -66.08,124.8 c -4.96,-6.08 -10,-12.24 -15.04,-18.56 -19.04,-23.76 -38.88,-49.28 -59.12,-76.4 -22.88,-30.56 -46.4,-63.12 -70.24,-97.36 -22.08,-31.60003 -44.4,-64.72003 -66.8,-98.96003 -19.04,-29.2 -38.16,-59.2 -57.12,-90 -0.72,-1.12 -1.44,-2.32 -2.08,-3.44 l 86,-169.84 c 18.24,36.48 36.88,72.4 55.68,107.6 z"
           style="fill:#ffffff;fill-opacity:1" />
        <path
           id="path4794-8"
           d="m -3856.8972,-2196.8705 c -11.36,-31.28 -22.8,-63.12 -34.32,-95.68 -0.16,-0.48 -0.32,-0.96 -0.48,-1.44 -1.6,-4.56 -3.28,-9.2 -4.88,-13.76 -7.76,-21.92 -14.4,-41.68 -29.84,-86.56 25.36,-11.6 45.68,-42 64.88,-76.48 -2.08,35.76 -16.8,69.28 -44.96,95.28 124.88,-5.6 232.48,25.92 288.08,117.28 4.96,8.16 9.52,16.72 13.6,25.76 -25.28,-32.08 -56.64,-45.68 -115.6,-42.4 -0.16,-0.08 -0.24,-0.08 -0.4,-0.16 0.16,0.08 0.24,0.08 0.4,0.16 86.88,38.88 130.48,76.24 168.96,138.08 9.12,14.64 18,30.72 27.04,48.48 -75.92,-78 -164,-100.24 -256.72,-83.36 l -69.52,-7.6 c -1.92,-5.84 -4.08,-11.68 -6.24,-17.6 z"
           style="fill:#ffffff;fill-opacity:1" />
        <path
           id="path4805-4"
           d="m -3824.4172,-2041.1105 c 15.04,38.8 30.48,78.16 46.4,117.76 15.2,37.92 30.8,76.16 46.8,114.56 16,38.4 32.32,76.88 48.96,115.36 16.96,39.2 34.32,78.24 51.92,117.2 17.44,38.48 35.2,76.72 53.28,114.64 6.48,13.68 13.04,27.28 19.68,40.8 11.36,23.44 22.88,46.72 34.48,69.76 0.64,1.28 1.28,2.48 1.92,3.68 l -86,169.84 c -1.44,-2.32 -2.8,-4.64 -4.24,-6.88 -20.08,-32.72 -40,-66.16 -59.52,-100.32 -19.76,-34.48 -39.2,-69.68 -58.16,-105.36 -16,-30.08 -31.68,-60.48 -46.88,-91.12 -3.04,-6.24 -6.08,-12.4 -9.04,-18.56 -18.72,-38.56 -35.68,-75.84 -50.96,-111.6 -17.36,-40.56 -32.56,-79.36 -46,-116.08 -8.8,-24.16 -16.8,-47.52 -24.08,-69.92 -6,-19.2 -11.76,-38.32 -17.2,-57.44 -12.8,-45.04 -23.92,-89.92 -32.96,-134.64 l 86.32,-170.72 c 11.44,30.48 23.12,61.44 35.2,92.8 3.28,8.72 6.72,17.44 10.08,26.24 z"
           style="fill:#ffffff;fill-opacity:1" />
        <path
           id="path4816-2"
           d="m -3957.2972,-1995.5905 c -10.88,-54.56 -18.56,-108.96 -22.4,-163.04 -0.16,-1.92 -0.32,-3.76 -0.4,-5.68 -26.96,43.2 -99.2,85.44 -99.04,84.96 51.68,-74.96 90.96,-149.36 96.72,-222.4 -27.68,-5.68 -65.6,2.56 -109.44,18.64 45.68,-42 80,-53.6 93.36,-56.72 -42,-2.64 -85.68,-31.44 -129.68,-64.64 64.4,26.24 116.4,36.64 153.68,28.24 -59.12,-167.2 -118.32,-351.84 -177.6,-547.84 18.16,5.36 28.96,17.52 35.12,34.08 10.56,35.52 80.64,268.48 190.4,574.56 3.12,8.72 6.24,17.44 9.44,26.32 0.88,2.4 1.76,4.88 2.64,7.36 11.6,32.08 23.6,64.88 36.08,98.32 2.8,7.6 5.68,15.2 8.56,22.88 0.08,0.16 0.08,0.32 0.16,0.48 l -86.32,170.56 c -0.4,-2.08 -0.88,-4.08 -1.28,-6.08 z"
           style="fill:#ffffff;fill-opacity:1" />
        <path
           id="path4827-1"
           d="m -3507.6172,-1361.6705 c -2.48,-5.04 -4.96,-10.16 -7.44,-15.28 -7.44,-15.36 -15.04,-31.04 -22.64,-47.04 -8.24,-17.36 -16.56,-35.12 -25.04,-53.2 -4.24,-9.12 -8.48,-18.32 -12.8,-27.68 -12.88,-28 -25.92,-56.88 -39.12,-86.64 -16.24,-36.64 -32.8,-74.72 -49.6,-114.24 -16,-37.68 -32.24,-76.72 -48.72,-117.04 -15.6,-38.32 -31.44,-77.84 -47.44,-118.64 -14.24,-36.32 -28.72,-73.68 -43.2,-112.08 -0.72,-1.84 -1.44,-3.76 -2.08,-5.6 -14.4,-38.08 -28.96,-77.28 -43.68,-117.44 -0.32,-0.88 -0.64,-1.84 -1.04,-2.72 l 69.52,7.6 c -1.36,0.24 -2.8,0.4 -4.16,0.72 83.12,10.4 193.68,72.48 265.12,149.2 32.88,35.36 62.8,77.04 90.4,125.84 20.56,36.32 39.84,76.64 58.24,121.2 16.08,38.96 31.52,81.12 46.4,126.88 -19.12,-10.08 -40.96,-17.44 -65.12,-22.56 -4.24,-0.88 -8.56,-1.76 -12.88,-2.48 -4.4,-0.8 -8.8,-1.44 -13.28,-2.08 l 0,0 0,0 c 0.08,0 0.08,0.08 0.16,0.08 77.52,29.84 126.4,87.36 161.92,157.92 -20.4,-13.92 -53.52,-32.08 -93.28,-40.88 -5.36,-1.2 -10.96,-2.16 -16.56,-2.96 -1.36,-0.24 -2.8,-0.48 -4.16,-0.64 l 0,0 0,0 c 0.08,0 0.08,0 0.08,0.08 0,0 0.08,0 0.08,0 l 0,0 c 26.88,11.28 49.6,23.84 69.28,38.72 4.24,3.2 8.32,6.48 12.24,9.84 6,5.2 11.76,10.64 17.2,16.4 3.52,3.68 6.88,7.44 10.16,11.36 7.68,9.2 14.96,19.12 21.68,29.84 2.08,3.28 4.08,6.64 6.08,10.08 2.56,4.96 5.04,9.84 7.44,14.64 10.8,21.76 19.52,41.2 26.4,58.24 3.44,8.48 6.48,16.4 9.04,23.76 1.04,2.96 2,5.76 2.96,8.48 2.72,8.16 4.96,15.44 6.72,21.84 2.64,9.6 4.24,17.2 5.12,22.72 l 0,0 0,0 c -2.64,-2.08 -5.68,-4.16 -9.04,-6.16 -23.44,-14 -63.6,-26.72 -95.92,-32.64 l 63.84,7.04 -63.84,-7.04 c -0.48,-0.08 -0.96,-0.16 -1.44,-0.24 -3.2,-0.56 -6.48,-1.04 -9.76,-1.6 0.56,0.24 1.12,0.56 1.68,0.8 l -218.4,-23.92 c -0.32,-0.88 -0.72,-1.68 -1.12,-2.48 z"
           style="fill:#ffffff;fill-opacity:1" />
        <path
           id="path4838-6"
           d="m -3261.7772,-920.15047 c -19.44,-29.84 -40.64,-63.68 -63.52,-102.00003 -1.2,-2 -2.4,-4.08 -3.6,-6.08 -19.68,-33.2 -40.64,-69.68 -62.64,-109.6 -19.04,-34.48 -38.8,-71.44 -59.44,-111.2 -17.92,-34.64 -36.48,-71.36 -55.52,-110.24 l 218.4,23.92 c 63.6,29.28 92.08,55.76 119.68,94.08 7.36,10.56 14.72,21.6 22,33.04 22.4,35.04 44.48,73.6 64.08,111.92 18.96,37.04 35.76,73.76 48.56,106.80003 8.16,21.04 14.72,40.64 19.28,57.84 4,15.2 7.12,29.52 9.52,43.28 -84.8,-14.48 -189.04,-28.4 -256.8,-31.76 z"
           style="fill:#ffffff;fill-opacity:1" />
      </g>
    </g>
  </g>
</svg>
