<?xml version="1.0" encoding="UTF-8" standalone="no"?>
<svg
   xmlns:dc="http://purl.org/dc/elements/1.1/"
   xmlns:cc="http://creativecommons.org/ns#"
   xmlns:rdf="http://www.w3.org/1999/02/22-rdf-syntax-ns#"
   xmlns:svg="http://www.w3.org/2000/svg"
   xmlns="http://www.w3.org/2000/svg"
   xmlns:xlink="http://www.w3.org/1999/xlink"
   version="1.1"
   id="svg6966"
   viewBox="0 0 713.87995 148.22834"
   height="41.833332mm"
   width="201.47279mm">
  <defs
     id="defs6968" />
  <metadata
     id="metadata6971">
    <rdf:RDF>
      <cc:Work
         rdf:about="">
        <dc:format>image/svg+xml</dc:format>
        <dc:type
           rdf:resource="http://purl.org/dc/dcmitype/StillImage" />
        <dc:title></dc:title>
      </cc:Work>
    </rdf:RDF>
  </metadata>
  <g
     transform="translate(-552.93622,-696.38307)"
     id="layer1">
    <g
       id="g6052"
       style="fill:#ffffff;fill-opacity:1"
       transform="matrix(1.4717261,0,0,-1.4717261,418.50187,550.36084)">
      <path
         id="path2996"
         d="m 101.72266,-199.73047 a 10.536289,10.536289 0 0 0 -10.376957,10.68359 l 0,80.3418 a 10.536289,10.536289 0 0 0 17.986327,7.44922 l 62.3457,-62.35547 0,54.90625 a 10.536289,10.536289 0 1 0 21.07032,0 l 0,-80.3418 a 10.536289,10.536289 0 0 0 -17.98633,-7.44726 l -62.3457,62.35352 0,-54.90626 a 10.536289,10.536289 0 0 0 -10.69336,-10.68359 z"
         style="color:#000000;font-style:normal;font-variant:normal;font-weight:normal;font-stretch:normal;font-size:medium;line-height:normal;font-family:sans-serif;text-indent:0;text-align:start;text-decoration:none;text-decoration-line:none;text-decoration-style:solid;text-decoration-color:#000000;letter-spacing:normal;word-spacing:normal;text-transform:none;direction:ltr;block-progression:tb;writing-mode:lr-tb;baseline-shift:baseline;text-anchor:start;white-space:normal;clip-rule:nonzero;display:inline;overflow:visible;visibility:visible;opacity:1;isolation:auto;mix-blend-mode:normal;color-interpolation:sRGB;color-interpolation-filters:linearRGB;solid-color:#000000;solid-opacity:1;fill:#ffffff;fill-opacity:1;fill-rule:nonzero;stroke:none;stroke-width:21.07047081;stroke-linecap:round;stroke-linejoin:round;stroke-miterlimit:4;stroke-dasharray:none;stroke-dashoffset:0;stroke-opacity:1;color-rendering:auto;image-rendering:auto;shape-rendering:auto;text-rendering:auto;enable-background:accumulate" />
      <path
         style="color:#000000;font-style:normal;font-variant:normal;font-weight:normal;font-stretch:normal;font-size:medium;line-height:normal;font-family:Sans;-inkscape-font-specification:Sans;text-indent:0;text-align:start;text-decoration:none;text-decoration-line:none;letter-spacing:normal;word-spacing:normal;text-transform:none;direction:ltr;block-progression:tb;writing-mode:lr-tb;baseline-shift:baseline;text-anchor:start;display:inline;overflow:visible;visibility:visible;fill:#ffffff;fill-opacity:1;stroke:none;stroke-width:5;marker:none;enable-background:accumulate"
         d="m 230.99959,-98.273963 -2.89719,-5.399307 -22.38738,-40.69235 -2.89719,-5.13592 2.89719,-5.13593 22.38738,-39.37544 3.02888,-5.39931 6.18945,0 45.82827,0 6.58452,0 2.89719,5.92607 16.72469,33.71275 7.50635,15.27609 -16.98806,0 -42.79939,-0.13169 c -5.5659,0.0787 -10.68528,-4.96878 -10.68528,-10.53523 0,-5.56646 5.11938,-10.61395 10.68528,-10.53524 l 25.81132,0.13169 -6.32114,-12.77397 -33.18599,0 -16.4613,28.9719 16.59299,30.02542 35.3024,0 8.23065,-16.8893 21.20216,0 -13.36658,32.0337 -2.89719,5.926067 -6.58452,0 -48.07637,0 z"
         id="path2996-0" />
      <path
         style="color:#000000;font-style:normal;font-variant:normal;font-weight:normal;font-stretch:normal;font-size:medium;line-height:normal;font-family:Sans;-inkscape-font-specification:Sans;text-indent:0;text-align:start;text-decoration:none;text-decoration-line:none;letter-spacing:normal;word-spacing:normal;text-transform:none;direction:ltr;block-progression:tb;writing-mode:lr-tb;baseline-shift:baseline;text-anchor:start;display:inline;overflow:visible;visibility:visible;fill:#ffffff;fill-opacity:1;stroke:none;stroke-width:5;marker:none;enable-background:accumulate"
         d="m 337.72692,-98.142272 c -5.5162,-0.06907 -10.47238,-5.150718 -10.40354,-10.666928 l 0,-27.45275 21.07047,0 0,27.45275 c 0.0699,5.60399 -5.06294,10.736852 -10.66693,10.666928 z"
         id="path2996-0-5" />
      <use
         x="0"
         y="0"
         xlink:href="#path2996"
         id="use3820"
         transform="matrix(-1,0,0,1,553.71493,-0.20403054)"
         width="744.09448"
         height="1052.3622"
         style="fill:#ffffff;fill-opacity:1" />
      <path
         id="path2996-1"
         d="m 565.46289,-199.66016 a 10.536289,10.536289 0 0 0 -7.24805,3.17383 l -80.42578,80.14453 a 10.536289,10.536289 0 1 0 14.87305,14.92383 l 80.42578,-80.14258 a 10.536289,10.536289 0 0 0 -7.625,-18.09961 z"
         style="color:#000000;font-style:normal;font-variant:normal;font-weight:normal;font-stretch:normal;font-size:medium;line-height:normal;font-family:sans-serif;text-indent:0;text-align:start;text-decoration:none;text-decoration-line:none;text-decoration-style:solid;text-decoration-color:#000000;letter-spacing:normal;word-spacing:normal;text-transform:none;direction:ltr;block-progression:tb;writing-mode:lr-tb;baseline-shift:baseline;text-anchor:start;white-space:normal;clip-rule:nonzero;display:inline;overflow:visible;visibility:visible;opacity:1;isolation:auto;mix-blend-mode:normal;color-interpolation:sRGB;color-interpolation-filters:linearRGB;solid-color:#000000;solid-opacity:1;fill:#ffffff;fill-opacity:1;fill-rule:nonzero;stroke:none;stroke-width:21.07047081;stroke-linecap:round;stroke-linejoin:round;stroke-miterlimit:4;stroke-dasharray:none;stroke-dashoffset:0;stroke-opacity:1;color-rendering:auto;image-rendering:auto;shape-rendering:auto;text-rendering:auto;enable-background:accumulate" />
      <use
         x="0"
         y="0"
         xlink:href="#path2996-1"
         id="use3851"
         transform="matrix(-1,0,0,1,1050.9717,0)"
         width="744.09448"
         height="1052.3622"
         style="fill:#ffffff;fill-opacity:1" />
      <path
         style="color:#000000;font-style:normal;font-variant:normal;font-weight:normal;font-stretch:normal;font-size:medium;line-height:normal;font-family:Sans;-inkscape-font-specification:Sans;text-indent:0;text-align:start;text-decoration:none;text-decoration-line:none;letter-spacing:normal;word-spacing:normal;text-transform:none;direction:ltr;block-progression:tb;writing-mode:lr-tb;baseline-shift:baseline;text-anchor:start;display:inline;overflow:visible;visibility:visible;fill:#ffffff;fill-opacity:1;stroke:none;stroke-width:5;marker:none;enable-background:accumulate"
         d="m 337.72692,-199.48204 c -5.5162,0.0691 -10.47238,5.15072 -10.40354,10.66692 l 0,44.09781 21.07047,0 0,-44.09781 c 0.0699,-5.60399 -5.06294,-10.73685 -10.66693,-10.66692 z"
         id="path2996-0-5-1" />
    </g>
  </g>
</svg>
